25.2 gapminder | R for Data Science Book Club
…
This is good….but how do we do this for every country?

25.2.1 Nested data

To make life easier for us (and ensure we are not copying and pasting forever), we use the map function from the purrr package.

Here, we are going to make a nested data frame.

by_country <- gapminder %>%
  group_by(country, continent) %>%
  nest()

by_country

## # A tibble: 142 × 3
## # Groups:   country, continent [142]
##    country     continent data             
##    <fct>       <fct>     <list>           
##  1 Afghanistan Asia      <tibble [12 × 4]>
##  2 Albania     Europe    <tibble [12 × 4]>
##  3 Algeria     Africa    <tibble [12 × 4]>
##  4 Angola      Africa    <tibble [12 × 4]>
##  5 Argentina   Americas  <tibble [12 × 4]>
##  6 Australia   Oceania   <tibble [12 × 4]>
##  7 Austria     Europe    <tibble [12 × 4]>
##  8 Bahrain     Asia      <tibble [12 × 4]>
##  9 Bangladesh  Asia      <tibble [12 × 4]>
## 10 Belgium     Europe    <tibble [12 × 4]>
## # … with 132 more rows
…
Now, lets fit some models!

country_model <- function(df) {
  lm(lifeExp ~ year, data = df)
}
models <- map(by_country$data, country_model)

Yet, this may be too costly, so instead, lets modify (be more elegant) with our data. Storing related objects in columns is a key part of the value of data frames.

by_country <- by_country %>%
  mutate(model = map(data, country_model))
by_country

## # A tibble: 142 × 4
## # Groups:   country, continent [142]
##    country     continent data              model 
##    <fct>       <fct>     <list>            <list>
##  1 Afghanistan Asia      <tibble [12 × 4]> <lm>  
##  2 Albania     Europe    <tibble [12 × 4]> <lm>  
##  3 Algeria     Africa    <tibble [12 × 4]> <lm>  
##  4 Angola      Africa    <tibble [12 × 4]> <lm>  
##  5 Argentina   Americas  <tibble [12 × 4]> <lm>  
##  6 Australia   Oceania   <tibble [12 × 4]> <lm>  
##  7 Austria     Europe    <tibble [12 × 4]> <lm>  
##  8 Bahrain     Asia      <tibble [12 × 4]> <lm>  
##  9 Bangladesh  Asia      <tibble [12 × 4]> <lm>  
## 10 Belgium     Europe    <tibble [12 × 4]> <lm>  
## # … with 132 more rows

This is a huge advantage: because all the related objects are stored together, you don’t need to manually keep them in sync when you filter or arrange.

by_country %>%
  filter(continent == "Europe")

## # A tibble: 30 × 4
## # Groups:   country, continent [30]
##    country                continent data              model 
##    <fct>                  <fct>     <list>            <list>
##  1 Albania                Europe    <tibble [12 × 4]> <lm>  
##  2 Austria                Europe    <tibble [12 × 4]> <lm>  
##  3 Belgium                Europe    <tibble [12 × 4]> <lm>  
##  4 Bosnia and Herzegovina Europe    <tibble [12 × 4]> <lm>  
##  5 Bulgaria               Europe    <tibble [12 × 4]> <lm>  
##  6 Croatia                Europe    <tibble [12 × 4]> <lm>  
##  7 Czech Republic         Europe    <tibble [12 × 4]> <lm>  
##  8 Denmark                Europe    <tibble [12 × 4]> <lm>  
##  9 Finland                Europe    <tibble [12 × 4]> <lm>  
## 10 France                 Europe    <tibble [12 × 4]> <lm>  
## # … with 20 more rows

by_country %>%
  arrange(continent, country)

## # A tibble: 142 × 4
## # Groups:   country, continent [142]
##    country                  continent data              model 
##    <fct>                    <fct>     <list>            <list>
##  1 Algeria                  Africa    <tibble [12 × 4]> <lm>  
##  2 Angola                   Africa    <tibble [12 × 4]> <lm>  
##  3 Benin                    Africa    <tibble [12 × 4]> <lm>  
##  4 Botswana                 Africa    <tibble [12 × 4]> <lm>  
##  5 Burkina Faso             Africa    <tibble [12 × 4]> <lm>  
##  6 Burundi                  Africa    <tibble [12 × 4]> <lm>  
##  7 Cameroon                 Africa    <tibble [12 × 4]> <lm>  
##  8 Central African Republic Africa    <tibble [12 × 4]> <lm>  
##  9 Chad                     Africa    <tibble [12 × 4]> <lm>  
## 10 Comoros                  Africa    <tibble [12 × 4]> <lm>  
## # … with 132 more rows

If your list of data frames and list of models were separate objects, you have to remember that whenever you re-order or subset one vector, you need to re-order or subset all the others in order to keep them in sync. If you forget, your code will continue to work, but it will give the wrong answer!

25.2.3 Unnesting

Previously, we were working with only one country. Now, lets compute the residuals of ALL countries.

by_country <- by_country %>%
  mutate(
    resids = map2(data, model, add_residuals)
  )
by_country

## # A tibble: 142 × 5
## # Groups:   country, continent [142]
##    country     continent data              model  resids           
##    <fct>       <fct>     <list>            <list> <list>           
##  1 Afghanistan Asia      <tibble [12 × 4]> <lm>   <tibble [12 × 5]>
##  2 Albania     Europe    <tibble [12 × 4]> <lm>   <tibble [12 × 5]>
##  3 Algeria     Africa    <tibble [12 × 4]> <lm>   <tibble [12 × 5]>
##  4 Angola      Africa    <tibble [12 × 4]> <lm>   <tibble [12 × 5]>
##  5 Argentina   Americas  <tibble [12 × 4]> <lm>   <tibble [12 × 5]>
##  6 Australia   Oceania   <tibble [12 × 4]> <lm>   <tibble [12 × 5]>
##  7 Austria     Europe    <tibble [12 × 4]> <lm>   <tibble [12 × 5]>
##  8 Bahrain     Asia      <tibble [12 × 4]> <lm>   <tibble [12 × 5]>
##  9 Bangladesh  Asia      <tibble [12 × 4]> <lm>   <tibble [12 × 5]>
## 10 Belgium     Europe    <tibble [12 × 4]> <lm>   <tibble [12 × 5]>
## # … with 132 more rows

By now, you should ask yourself: “How can I plot a bunch of dataframes?”. This isn’t required. We have to un-nest.

resids <- unnest(by_country, resids)
resids

## # A tibble: 1,704 × 9
## # Groups:   country, continent [142]
##    country     continent data     model   year lifeExp     pop gdpPercap   resid
##    <fct>       <fct>     <list>   <list> <int>   <dbl>   <int>     <dbl>   <dbl>
##  1 Afghanistan Asia      <tibble> <lm>    1952    28.8  8.43e6      779. -1.11  
##  2 Afghanistan Asia      <tibble> <lm>    1957    30.3  9.24e6      821. -0.952 
##  3 Afghanistan Asia      <tibble> <lm>    1962    32.0  1.03e7      853. -0.664 
##  4 Afghanistan Asia      <tibble> <lm>    1967    34.0  1.15e7      836. -0.0172
##  5 Afghanistan Asia      <tibble> <lm>    1972    36.1  1.31e7      740.  0.674 
##  6 Afghanistan Asia      <tibble> <lm>    1977    38.4  1.49e7      786.  1.65  
##  7 Afghanistan Asia      <tibble> <lm>    1982    39.9  1.29e7      978.  1.69  
##  8 Afghanistan Asia      <tibble> <lm>    1987    40.8  1.39e7      852.  1.28  
##  9 Afghanistan Asia      <tibble> <lm>    1992    41.7  1.63e7      649.  0.754 
## 10 Afghanistan Asia      <tibble> <lm>    1997    41.8  2.22e7      635. -0.534 
## # … with 1,694 more rows
…
broom::glance(nz_mod)

## # A tibble: 1 × 12
##   r.squared adj.r.squared sigma statistic      p.value    df logLik   AIC   BIC
##       <dbl>         <dbl> <dbl>     <dbl>        <dbl> <dbl>  <dbl> <dbl> <dbl>
## 1     0.954         0.949 0.804      205. 0.0000000541     1  -13.3  32.6  34.1
## # … with 3 more variables: deviance <dbl>, df.residual <int>, nobs <int>

We can use mutate() and unnest() to create a data frame with a row for each country.

by_country %>%
  mutate(glance = map(model, broom::glance)) %>%
  unnest(glance)

## # A tibble: 142 × 17
## # Groups:   country, continent [142]
##    country     continent data     model  resids   r.squared adj.r.squared sigma
##    <fct>       <fct>     <list>   <list> <list>       <dbl>         <dbl> <dbl>
##  1 Afghanistan Asia      <tibble> <lm>   <tibble>     0.948         0.942 1.22 
##  2 Albania     Europe    <tibble> <lm>   <tibble>     0.911         0.902 1.98 
##  3 Algeria     Africa    <tibble> <lm>   <tibble>     0.985         0.984 1.32 
##  4 Angola      Africa    <tibble> <lm>   <tibble>     0.888         0.877 1.41 
##  5 Argentina   Americas  <tibble> <lm>   <tibble>     0.996         0.995 0.292
##  6 Australia   Oceania   <tibble> <lm>   <tibble>     0.980         0.978 0.621
##  7 Austria     Europe    <tibble> <lm>   <tibble>     0.992         0.991 0.407
##  8 Bahrain     Asia      <tibble> <lm>   <tibble>     0.967         0.963 1.64 
##  9 Bangladesh  Asia      <tibble> <lm>   <tibble>     0.989         0.988 0.977
## 10 Belgium     Europe    <tibble> <lm>   <tibble>     0.995         0.994 0.293
## # … with 132 more rows, and 9 more variables: statistic <dbl>, p.value <dbl>,
## #   df <dbl>, logLik <dbl>, AIC <dbl>, BIC <dbl>, deviance <dbl>,
## #   df.residual <int>, nobs <int>
…
Note, .drop=TRUE has been depricated.

glance <- by_country %>%
  mutate(glance = map(model, broom::glance)) %>%
  unnest(glance, .drop = TRUE)

## Warning: The `.drop` argument of `unnest()` is deprecated as of tidyr 1.0.0.
## All list-columns are now preserved.
## This warning is displayed once every 8 hours.
## Call `lifecycle::last_lifecycle_warnings()` to see where this warning was generated.

glance

## # A tibble: 142 × 17
## # Groups:   country, continent [142]
##    country     continent data     model  resids   r.squared adj.r.squared sigma
##    <fct>       <fct>     <list>   <list> <list>       <dbl>         <dbl> <dbl>
##  1 Afghanistan Asia      <tibble> <lm>   <tibble>     0.948         0.942 1.22 
##  2 Albania     Europe    <tibble> <lm>   <tibble>     0.911         0.902 1.98 
##  3 Algeria     Africa    <tibble> <lm>   <tibble>     0.985         0.984 1.32 
##  4 Angola      Africa    <tibble> <lm>   <tibble>     0.888         0.877 1.41 
##  5 Argentina   Americas  <tibble> <lm>   <tibble>     0.996         0.995 0.292
##  6 Australia   Oceania   <tibble> <lm>   <tibble>     0.980         0.978 0.621
##  7 Austria     Europe    <tibble> <lm>   <tibble>     0.992         0.991 0.407
##  8 Bahrain     Asia      <tibble> <lm>   <tibble>     0.967         0.963 1.64 
##  9 Bangladesh  Asia      <tibble> <lm>   <tibble>     0.989         0.988 0.977
## 10 Belgium     Europe    <tibble> <lm>   <tibble>     0.995         0.994 0.293
## # … with 132 more rows, and 9 more variables: statistic <dbl>, p.value <dbl>,
## #   df <dbl>, logLik <dbl>, AIC <dbl>, BIC <dbl>, deviance <dbl>,
## #   df.residual <int>, nobs <int>

Now, we can look for countries that don’t fit our model well.

glance %>%
  arrange(r.squared)

## # A tibble: 142 × 17
## # Groups:   country, continent [142]
##    country       continent data     model resids   r.squared adj.r.squared sigma
##    <fct>         <fct>     <list>   <lis> <list>       <dbl>         <dbl> <dbl>
##  1 Rwanda        Africa    <tibble> <lm>  <tibble>    0.0172      -0.0811   6.56
##  2 Botswana      Africa    <tibble> <lm>  <tibble>    0.0340      -0.0626   6.11
##  3 Zimbabwe      Africa    <tibble> <lm>  <tibble>    0.0562      -0.0381   7.21
##  4 Zambia        Africa    <tibble> <lm>  <tibble>    0.0598      -0.0342   4.53
##  5 Swaziland     Africa    <tibble> <lm>  <tibble>    0.0682      -0.0250   6.64
##  6 Lesotho       Africa    <tibble> <lm>  <tibble>    0.0849      -0.00666  5.93
##  7 Cote d'Ivoire Africa    <tibble> <lm>  <tibble>    0.283        0.212    3.93
##  8 South Africa  Africa    <tibble> <lm>  <tibble>    0.312        0.244    4.74
##  9 Uganda        Africa    <tibble> <lm>  <tibble>    0.342        0.276    3.19
## 10 Congo, Dem. … Africa    <tibble> <lm>  <tibble>    0.348        0.283    2.43
## # … with 132 more rows, and 9 more variables: statistic <dbl>, p.value <dbl>,
## #   df <dbl>, logLik <dbl>, AIC <dbl>, BIC <dbl>, deviance <dbl>,
## #   df.residual <int>, nobs <int>
…
